C:\Users\Baldassare Bruno\LearnSpringFramework\SpringBootWSSoap\src\main\java\com\bruno\wssoap\config\WebServiceConfig.java
C:\Users\Baldassare Bruno\LearnSpringFramework\SpringBootWSSoap\src\main\java\com\bruno\wssoap\countryservice\GetCountryResponse.java
C:\Users\Baldassare Bruno\LearnSpringFramework\SpringBootWSSoap\src\main\java\com\bruno\wssoap\countryservice\Country.java
C:\Users\Baldassare Bruno\LearnSpringFramework\SpringBootWSSoap\src\main\java\com\bruno\wssoap\countryservice\Currency.java
C:\Users\Baldassare Bruno\LearnSpringFramework\SpringBootWSSoap\src\main\java\com\bruno\wssoap\endpoint\CountryEndpoint.java
C:\Users\Baldassare Bruno\LearnSpringFramework\SpringBootWSSoap\src\main\java\com\bruno\wssoap\repositories\CountryRepository.java
C:\Users\Baldassare Bruno\LearnSpringFramework\SpringBootWSSoap\src\main\java\com\bruno\wssoap\countryservice\GetCountryRequest.java
C:\Users\Baldassare Bruno\LearnSpringFramework\SpringBootWSSoap\src\main\java\com\bruno\wssoap\countryservice\ObjectFactory.java
C:\Users\Baldassare Bruno\LearnSpringFramework\SpringBootWSSoap\src\main\java\com\bruno\wssoap\countryservice\package-info.java
C:\Users\Baldassare Bruno\LearnSpringFramework\SpringBootWSSoap\src\main\java\com\bruno\wssoap\SpringBootWsSoapApplication.java
